R for Motus
…
## # A tibble: 1 x 15
## # Groups:   motusTagID, tagDeployID [1]
##   motusTagID tagDeployID                ts.x  lat.x    lon.x    site.x
##        <int>       <int>              <dttm>  <dbl>    <dbl>    <fctr>
## 1      16047        1839 2015-10-26 11:27:54 42.488 -72.5376 MountToby
## # ... with 9 more variables: ts.y <dttm>, lat.y <dbl>, lon.y <dbl>,
## #   site.y <fctr>, tot_ts <time>, dist <dbl>, rate <dbl>, bearing <dbl>,
## #   rhumbline_bearing <dbl>

It would appear that the bird is travelling at a rage of 2203.543 m/s (7,932 km/hr)! Based on rate alone you may think this is due to false detections, however the two sites are only 22km apart, and the time between detections was only 10 seconds. This high estimated rate of movement is likely due to the tag being detected at the edge of the detection range of both receivers; remember we do not know how far the tag is from the receiver location at time of detection. It’s therefore important to take all information into consideration when looking at high rates of movement. Let’s look at all cases of high rates of movements, we can be conservative and only look at rates > 50 m/s

filter(JBtrans, rate > 50)

## # A tibble: 23 x 15
## # Groups:   motusTagID, tagDeployID [2]
##    motusTagID tagDeployID                ts.x   lat.x    lon.x
##         <int>       <int>              <dttm>   <dbl>    <dbl>
##  1      16038        1826 2015-08-20 22:51:11 51.4839 -80.4501
##  2      16047        1839 2015-10-26 11:19:40 42.6807 -72.4739
##  3      16047        1839 2015-10-26 11:19:49 42.6070 -72.7166
##  4      16047        1839 2015-10-26 11:19:59 42.6807 -72.4739
##  5      16047        1839 2015-10-26 11:20:28 42.6070 -72.7166
##  6      16047        1839 2015-10-26 11:20:48 42.6807 -72.4739
##  7      16047        1839 2015-10-26 11:21:17 42.6070 -72.7166
##  8      16047        1839 2015-10-26 11:21:46 42.6807 -72.4739
##  9      16047        1839 2015-10-26 11:21:55 42.6070 -72.7166
## 10      16047        1839 2015-10-26 11:22:34 42.6807 -72.4739
## # ... with 13 more rows, and 10 more variables: site.x <fctr>,
## #   ts.y <dttm>, lat.y <dbl>, lon.y <dbl>, site.y <fctr>, tot_ts <time>,
## #   dist <dbl>, rate <dbl>, bearing <dbl>, rhumbline_bearing <dbl>
…
