R for Motus
…
These detections were at sites around the Canadian Maritimes (Sable Island (NS), Grand Manan (NB)) and were run lengths of 3. These are indicators of likely false positives. We’ll now start a tally of the particular runs involved, so that we can collate them in to a filter later.

If you are interested, you can re-run the code above, but on the full data frame (df.alltags) containing run lengths of 2. You will see that there are additional false positive detections at these sites, that are already eliminated by filtering on runLen > 2. These additional detections provide further evidence that these sites experienced some radio noise during these particular months, resulting in some false positive detections.

You may also be interested more generally in exploring which data have only short run lengths. For example, the following code shows the maximum run length at all sites by month (for those runs with runLen > 2).

df.alltags.sub %>%
  mutate(month = month(ts)) %>%
  group_by(recvDeployName, month) %>%
  summarize(max.rl = max(runLen)) %>%
  spread(key=month, value=max.rl)

## # A tibble: 49 x 9
## # Groups:   recvDeployName [49]
##    recvDeployName            `1`   `3`   `4`   `5`   `8`   `9`  `10`  `12`
##  * <chr>                   <dbl> <dbl> <dbl> <dbl> <dbl> <dbl> <dbl> <dbl>
##  1 Assateague State Park      NA    NA    NA NA       NA  6.00 NA       NA
##  2 BennettMeadow              NA    NA    NA NA       NA NA    11.0     NA
##  3 Binbrook_Conservation_~    NA    NA    NA  3.00    NA NA    NA       NA
##  4 BISE                       NA    NA    NA NA       NA NA     6.00    NA
##  5 Bombay Hook                NA    NA    NA NA       NA 53.0  NA       NA
##  6 Brier2                     NA    NA    NA NA       NA 29.0  NA       NA
##  7 BSC HQ                     NA    NA    NA 21.0     NA NA    NA       NA
##  8 BULL                       NA    NA    NA NA       NA 38.0   5.00    NA
##  9 Comeau (Marshalltown)      NA    NA    NA NA       NA  4.00 NA       NA
## 10 CONY                       NA    NA    NA NA       NA NA     7.00    NA
## # ... with 39 more rows
…
